{   
   "name": "chat-colors-and-more",   
   "title": "Chat Colors & More",   
   "description": "Allows customization of chat log colors, as well as other minor chat-related features.",   
   "author": "Letheka",
   "version": "0.0.2",
   "minimumCoreVersion": "0.5.3",
   "url": "https://gitlab.com/lethekazhorai/chat-colors-and-more",
   "manifest": "https://gitlab.com/lethekazhorai/chat-colors-and-more/-/raw/master/module.json",
   "download": "https://gitlab.com/lethekazhorai/chat-colors-and-more/-/archive/0.0.2/chat-colors-and-more-0.0.2.zip",
   "scripts": [
        "scripts/chat-colors.js"
   ]
 }